*** Life<ConwayCell> 7x7 ***

Generation = 0, Population = 12.
*.*....
...**..
...*.*.
.**....
...**..
....**.
.......

Generation = 147, Population = 6.
.......
.......
.......
.**....
*..*...
.**....
.......

*** Life<ConwayCell> 6x6 ***

Generation = 0, Population = 12.
***.*.
**....
....*.
....**
***...
......

Generation = 37, Population = 0.
......
......
......
......
......
......

*** Life<ConwayCell> 8x9 ***

Generation = 0, Population = 12.
..*.*....
.........
..**.*...
.........
.***.**..
......**.
.........
.........

Generation = 53, Population = 4.
.........
.........
.........
.........
.........
.....**..
.....**..
.........

*** Life<ConwayCell> 8x7 ***

Generation = 0, Population = 11.
..**.*.
....*..
*....*.
..*.*..
.......
..**...
..*....
.......

Generation = 174, Population = 7.
.......
.......
.......
.......
.......
.....**
...*..*
...***.

*** Life<ConwayCell> 7x6 ***

Generation = 0, Population = 11.
..*...
..**..
....*.
......
.*****
.*.*..
......

Generation = 47, Population = 3.
....*.
....*.
....*.
......
......
......
......

*** Life<ConwayCell> 9x7 ***

Generation = 0, Population = 12.
.*.....
.*.....
.*.*...
*......
*......
**.....
....*..
*.**...
.......

Generation = 14, Population = 8.
**.**..
**.**..
.......
.......
.......
.......
.......
.......
.......

*** Life<ConwayCell> 7x7 ***

Generation = 0, Population = 13.
*...*..
.***.*.
*..*...
..*.**.
.......
*....*.
.......

Generation = 74, Population = 0.
.......
.......
.......
.......
.......
.......
.......

*** Life<ConwayCell> 6x7 ***

Generation = 0, Population = 10.
**..*..
.*.....
.**.**.
...*.*.
.......
.......

Generation = 169, Population = 4.
.......
.....**
.....**
.......
.......
.......
