*** Life<Cell> 12x12 ***

Generation = 0, Population = 11.
0--------0--
---------0--
------------
------0-----
------------
-------0----
----0--0----
0-----------
------------
------------
0-----------
0-----0-----

Generation = 12, Population = 66.
-*1**-.11*-.
*.--0..*---*
--11.0.**.*1
*-1..-0**1*-
.-*..1.*-.10
..11**..1.--
*.-.11......
*..1.-1.1.**
*1...1*.--..
.***-*.0-..-
*-.*.-.*1-*1
.**0*-*..-00

*** Life<Cell> 5x5 ***

Generation = 0, Population = 13.
0-000
0--0-
00--0
---0-
0--00

Generation = 3, Population = 11.
1-.*1
---.-
----1
1*0.0
1-0-*

Generation = 6, Population = 16.
10...
*10*1
011**
-.0.1
.0.1.

Generation = 9, Population = 8.
--...
.11.-
0***.
-...*
.-.*.

*** Life<Cell> 10x14 ***

Generation = 0, Population = 19.
--0-------0---
0-------------
--0-----0-----
0------0--0---
00-0--0---0---
--------------
---------0----
-------00-----
---------00---
---------0----

Generation = 1, Population = 42.
00-0-----0-0--
-0------0-0---
-0-0-----00---
1-00-----010--
-1--00---010--
00-0--0--00---
-------0--0---
------01100---
-------0--10--
--------01----

Generation = 2, Population = 46.
1---0-----0-0-
--0----0--1---
-1010-----1---
--1--0--01--0-
0*-011--01--0-
1-------0-1---
00-0--01-0-0--
-----01---1---
-------100-10-
--------1*-0--

*** Life<Cell> 14x5 ***

Generation = 0, Population = 16.
---0-
-----
---0-
0----
0--0-
0-0--
--00-
-----
0----
-0---
---0-
00-0-
---0-
-----

Generation = 8, Population = 37.
.-1--
*--1-
**..-
-0*1-
1*0**
***1-
*1-*-
***-1
011--
.0.--
.--.-
.1.-*
1.*.*
.10**

Generation = 16, Population = 25.
..-11
.1.**
..*.-
1*..*
1.*..
....-
.**.1
....*
-*-0*
.*..-
..*.-
...-*
*...*
*..*.

*** Life<Cell> 10x15 ***

Generation = 0, Population = 10.
---------------
-----------0---
-0-------0-----
---------------
--0------------
----0-0--------
---------------
0---0-0--------
---0-----------
---------------

Generation = 1, Population = 27.
-----------0---
-0-------00-0--
0-0-----0-00---
-00------0-----
-0-00-0--------
--00---0-------
0--------------
-0-----0-------
0-0---0--------
---0-----------

Generation = 2, Population = 27.
-0-------0-----
---------1---0-
--10---0---1---
----0-0----0---
01--1----0-----
0-1-----0------
--00-----------
0-------0------
-0---0---------
0---0-0--------

Generation = 3, Population = 59.
0-0-----010--0-
-000---00*000-0
-0*1----000*00-
000-1----0010--
-*-0*00---00---
10*-0--0-------
-0-10----------
--00-0-0-0-----
0-0-----0------
---0-0-0-------

*** Life<Cell> 9x13 ***

Generation = 0, Population = 15.
0---------0--
----0--------
0------------
--------0----
---0---------
---0-----0---
-0--------00-
----0------0-
--00---------

Generation = 8, Population = 57.
*0..-------*-
*-00*.--*.--*
--*1---0*-*.0
0001.-1--.*-.
-01*0.1*.10*-
0-**.--**01.*
0*.1--1-.-*.*
-1.*0--.-*0*-
-0**01.-1-..*

Generation = 16, Population = 39.
....-.*-*-*..
......*.*..-.
-1*..--.*1**.
1.-..*...**0.
-0.*..***--.-
....*..****..
0..----......
***..1**-.*..
*1**.*.-.-...

*** Life<Cell> 9x5 ***

Generation = 0, Population = 9.
00-0-
0----
-0---
-----
-00-0
----0
-----
-----
-----

Generation = 6, Population = 17.
-.-1-
*1---
*-.*-
01--*
.....
11.-*
1.---
--1-*
1--01

*** Life<Cell> 7x9 ***

Generation = 0, Population = 11.
-------00
---------
-0-------
0----0-0-
0---0-0--
-------0-
-------0-

Generation = 13, Population = 28.
..-0.*1..
....**.-1
-.**-11.*
.****-*.*
.*.****.*
--.*-...*
..-**1...

*** Life<Cell> 7x8 ***

Generation = 0, Population = 6.
---0-0--
--------
--------
-----0-0
------0-
-------0
--------

Generation = 9, Population = 22.
0**-0-*-
0.---.-*
1-0.0*.0
1-*.-*--
.-.*-..1
---1-*--
-0--0-0-
